តើពេលនេះម៉ោងប៉ុន្មានហើយ?
ឥឡូវនេះគឺម៉ោង @get_time@។
ឥឡូវនេះតើម៉ោងប៉ុន្មាន?
ឥឡូវនេះគឺម៉ោង @get_time@។
ម៉ោង ប៉ុន្មាន ហើយ ?
ឥឡូវ នេះ គឺ ម៉ោង @get_time@ ។
ប្រាប់ ម៉ោង ។
ឥឡូវ នេះ គឺ ម៉ោង @get_time@ ។
>>>
ថ្ងៃស្អែកជាថ្ងៃអ្វី?
ស្អែកជាថ្ងៃ @get_date_tomorrow@
ស្អែកជាថ្ងៃអ្វី?
ស្អែកជាថ្ងៃ @get_date_tomorrow@
ប្រាប់ខ្ញុំស្អែកជាថ្ងៃអ្វី?
ស្អែកជាថ្ងៃ @get_date_tomorrow@
ប្រាប់ខ្ញុំមកស្អែកជាថ្ងៃអ្វី?
ស្អែកជាថ្ងៃ @get_date_tomorrow@
ប្រាប់មកស្អែកជាថ្ងៃអី?
ស្អែកជាថ្ងៃ @get_date_tomorrow@
>>>
ថ្ងៃនេះជាថ្ងៃអ្វី?
នេះជាថ្ងៃ @get_date_today@
ថ្ងៃអ្វី?
នេះជាថ្ងៃ @get_date_today@
ប្រាប់មកថ្ងៃនេះជាថ្ងៃអ្វី?
នេះជាថ្ងៃ @get_date_today@
ប្រាប់ខ្ញុំមកជាថ្ងៃអ្វី?
នេះជាថ្ងៃ @get_date_today@


