តើអ្នកមានប្រាក់ខែដែរឬទេ?
ខ្ញុំមិនត្រូវការលុយ។
ផ្សារហ៊ុន
ទិញទាបនិងលក់ខ្ពស់។
ផ្សារហ៊ុន
វិនិយោគក្នុងខ្លួនអ្នក។
ផ្សារហ៊ុន
ហេតុអ្វីបានជាអ្នកមិនចាំបាច់ទៅកាស៊ីណូ?
ផ្សារហ៊ុន
ខ្ញុំមិនផ្តល់អនុសាសន៍ការផ្តល់ហិរញ្ញប្បទាន។
ផ្សារហ៊ុន
អ្នកពិតជាមិនអាចទស្សន៍ទាយទីផ្សារហ៊ុនបានទេ។
ផ្សារហ៊ុន
មេធាវីរបស់ខ្ញុំបាននិយាយថាខ្ញុំមិនគួរបោះបង់ចោលជំនាញជួញដូរភាគហ៊ុនតាមអ៊ីនធឺណិតទេ។
ផ្សារហ៊ុន
មូលនិធិសមូហភាពអាចល្អប្រសើរជាងមុនលុះត្រាតែអ្នកជាអ្នកមាន។
ផ្សារហ៊ុន
ខ្ញុំមិនគិតថាមានតែខ្ញុំទេដែលអាចវាយលុកទីផ្សារបាន។
ដំឡើងអត្រាការប្រាក់
វាអាស្រ័យលើសកម្មភាពរបស់ធនាគារកណ្តាល។
តើប្រាក់រៀលជាអ្វី?
ឯកតារូបិយប័ណ្ណកម្ពុជា។
តើលុយគឺជាអ្វី?
លុយដែលអាចហៅថាលុយគឺជាឧបករណ៍មួយដែលត្រូវបានប្រើជាមធ្យោបាយនៃការផ្លាស់ប្តូរតម្លៃស្តុកនិងឯកតាគណនេយ្យ។ វាជាទំនិញពិសេសដែលដើរតួរដូចការដោះដូរទំនិញនិងសេវាកម្ម។
តើផ្សារហ៊ុនជាអ្វី?
ការជួញដូរភាគហ៊ុន។
តើផ្សារហ៊ុនជាអ្វី?
ប្រតិបត្តិការខ្នាតធំ។
តើផ្សារហ៊ុនជាអ្វី?
ទិញទាបនិងលក់ខ្ពស់។
តើអ្វីទៅជាការវិនិយោគសំណព្វរបស់អ្នក?
តើភាគហ៊ុនដែលអ្នកចូលចិត្តជាងគេ?
តើអ្វីទៅជាការវិនិយោគសំណព្វរបស់អ្នក?
តើភាគហ៊ុនដែលអ្នកចូលចិត្តជាងគេ?
សេដ្ឋកិច្ចគឺជាអ្វី
ជាមួយនឹងការផលិតការចែកចាយនិងទ្រព្យសម្បត្តិនៃប្រតិបត្តិការអតិថិជននិងវិទ្យាសាស្ត្រការងារការងារហិរញ្ញវត្ថុការយកពន្ធនិងបញ្ហាពាក់ព័ន្ធផ្សេងៗទៀត
សេដ្ឋកិច្ចគឺជាអ្វី
បច្ចេកទេសនេះគឺជាការសិក្សាមួយនៃការចែកចាយក្រោមលក្ខខណ្ឌនៃធនធានខ្វះខាត។
សេដ្ឋកិច្ចគឺជាអ្វី
វាគឺអំពីរបៀបដែលធនធានត្រូវបានប្រើដើម្បីធ្វើឱ្យអ្វីបំពេញតម្រូវការនិងតម្រូវការរបស់ប្រជាជន។
ខ្ញុំបានទិញភាគហ៊ុន។
តើអ្នកគិតថាផ្សារហ៊ុននឹងមានប្រជាប្រិយភាពដែរឬទេ?
លុយ
តើយើងនិយាយអំពីចំនួនប៉ុន្មាន?
តើអ្នករកលុយបានប៉ុន្មាន?
គ្មាននរណាម្នាក់បង់ខ្ញុំខ្ញុំធ្វើការដោយឥតគិតថ្លៃ។
តើអ្នករកលុយបានប៉ុន្មាន?
លុយមិនមានគ្រប់ជ្រុងជ្រោយ។
តើអ្នករកលុយបានប៉ុន្មាន?
ខ្ញុំសង្ឃឹមថានឹងដំឡើងប្រាក់ខែអោយបានឆាប់តាមដែលអាចធ្វើទៅបាន។
តើអ្នកប្រមូលបានប៉ុន្មាន?
ការងារគឺឥតគិតថ្លៃ។ យើងមិនត្រូវការលុយ។
តើអ្នកមានប៉ុន្មាន?
ប្រណីតមិនចាំបាច់ទេ។
តើប៉ុន្មាន?
វាអាស្រ័យលើអត្រាប្តូរប្រាក់។
តើប៉ុន្មាន?
អត្រាប្រើប្រាស់ដើមទុនរបស់ខ្ញុំគឺប្រហែល 3.000 យន់។
1 ដុល្លារ
អ្នកមិនអាចទិញច្រើនជាងមួយដុល្លារ។
តើនរណាជាម្ចាស់ហ៊ុនផ្តល់ជូនសាធារណៈ?
ម្ចាស់ភាគហ៊ុន។