សូមស្វាគមន៍!
សួស្តី
ជំរាបសួរ
ស្វាគមន៍!
អេ៎! តើអ្នកសុខសប្បាយទេ?
ល្អណាស់។
អេ៎! តើអ្នកសុខសប្បាយទេ?
ល្អណាស់។
អេ៎! តើអ្នកសុខសប្បាយទេ?
មិនអាក្រក់។
អេ៎! តើអ្នកសុខសប្បាយទេ?
មិនអាក្រក់ ទេ។
អេ៎! តើអ្នកសុខសប្បាយទេ?
ត្រូវការភាពប្រសើរឡើង។
អេ៎! តើអ្នកសុខសប្បាយទេ?
មិនល្អខ្លាំងណាស់ ទេ។
តើអ្នកសុខសប្បាយទេ?
ល្អណាស់។
តើអ្នកសុខសប្បាយទេ?
ល្អខ្លាំង, សូមអរគុណ។
តើអ្នកសុខសប្បាយទេ?
មិនអាក្រក់ទេចុះអ្នកវិញ?
រីករាយណាស់ដែលបានជួបអ្នក។
សូមអរគុណ។
តើអ្នកមិនអីទេ?
ខ្ញុំមិនអីទេ។
តើអ្នកមិនអីទេ?
ខ្ញុំសុខសប្បាយមែនចុះអ្នកវិញ?
អូរីករាយណាស់ដែលបានជួបអ្នក។
សូមអរគុណ។ អ្នកដូចគ្នា។
រីករាយណាស់ដែលបានជួបអ្នក។
សូមអរគុណ។ អ្នកដូចគ្នា។
អរុណសួស្តី!
អរុណសួស្តី!
តើមានអ្វីកើតឡើង?
មិនអីទេ។
តើមានអ្វីកើតឡើង?
មិនល្អទេ។
តើមានអ្វីកើតឡើង?
មិនអីទេចុះអ្នកវិញ?
តើមានអ្វីកើតឡើង?
វាមិនអីទេ។
តើមានអ្វីកើតឡើង?
មិនអីទេ, អរគុណអ្នក, ចុះអ្នកវិញ?