>> តើ ពេលនេះ ម៉ោង ប៉ុន្មាន ហើយ ?
 > ឥឡូវ នេះ គឺ ម៉ោង @get_time@ ។
>> ឥឡូវ នេះ តើ ម៉ោង ប៉ុន្មាន ?
 > ឥឡូវ នេះ គឺ ម៉ោង @get_time@ ។
>> ម៉ោង ប៉ុន្មាន ហើយ ?
 > ឥឡូវ នេះ គឺ ម៉ោង @get_time@ ។
>> ប្រាប់ ម៉ោង ។
 > ឥឡូវ នេះ គឺ ម៉ោង @get_time@ ។
>> ថ្ងៃស្អែក ជា ថ្ងៃ អ្វី ?
 > ស្អែក ជា ថ្ងៃ @get_date_tomorrow@
>> ស្អែក ជា ថ្ងៃ អ្វី ?
 > ស្អែក ជា ថ្ងៃ @get_date_tomorrow@
>> ប្រាប់ ខ្ញុំ ស្អែក ជា ថ្ងៃ អ្វី ?
 > ស្អែក ជា ថ្ងៃ @get_date_tomorrow@
>> ប្រាប់ ខ្ញុំ មក ស្អែក ជា ថ្ងៃ អ្វី ?
 > ស្អែក ជា ថ្ងៃ @get_date_tomorrow@
>> ប្រាប់ មក ស្អែក ជា ថ្ងៃ អី ?
 > ស្អែក ជា ថ្ងៃ @get_date_tomorrow@
>> ថ្ងៃ នេះ ជា ថ្ងៃ អ្វី ?
 > នេះ ជា ថ្ងៃ @get_date_today@
>> ថ្ងៃ អ្វី ?
 > នេះ ជា ថ្ងៃ @get_date_today@
>> ប្រាប់ មក ថ្ងៃ នេះ ជា ថ្ងៃ អ្វី ?
 > នេះ ជា ថ្ងៃ @get_date_today@
>> ប្រាប់ ខ្ញុំ មក ជា ថ្ងៃ អ្វី ?
 > នេះ ជា ថ្ងៃ @get_date_today@