តើខ្ញុំចូលរួមជាមួយqb ដោយរបៀបណា?
ដើម្បីគាំទ្រដល់រាជរដ្ឋាភិបាលកម្ពុជា និងសន្តិសុខជាតិ ព្រមទាំងការពារអតិជន អតិថិជនទាំងអស់ត្រូវផ្តល់អត្តសញ្ញាណប័ណ្ណមានសុពលភាពសំរាប់ចុះបញ្ជីស៊ីមនៅពេលទិញ qb  ស៊ីមកាត។ សូមចូលទីនេះ (click here) ដើម្បីស្វែងរកកន្លែងដែលអាចទិញ qb ស៊ីមកាតបាន។
>>>
តើ qb មានកម្មវិធីពិសេសៗ អ្វីខ្លះនាពេលបច្ចុប្បន្ន?
ជារៀងរាល់ខែ qb មានកម្មវិធីថ្មីៗដ៏ច្រើនសន្ធឹកសន្ធាប់។ សម្រាប់ព៌តមានលម្អិត ឈ្នះទូរស័ព្ទស្មាតហ្វូនជាច្រើនរង្វាន់ ពីqb
>>>
តើនរណាអាចភ្ជាប់គម្រោង Data Xchange បាន?
រាល់អតិថិជន qb Simple និង qb Passport អាចភ្ជាប់គម្រោង Data Xchange បាន
>>>
តើមានអ្វីកើតឡើងនៅពេលដែលគម្រោង Data Xchange របស់ខ្ញុំអស់សុពលភាព?
នៅពេលដែលគម្រោង Data Xchange អស់សុពលភាព លោកអ្នកនៅតែអាចប្រើ អ៊ីនធើណែតបានដដែល គឺ1MB = 1សេន។
>>>
តើខ្ញុំអាចភ្ជាប់គម្រោង Data Xchange ច្រើនដងក្នុងនៅពេលតែមួយបានដែរ ឬទេ?
លោកអ្នកអាចភ្ជាប់គម្រោង Data Xchange ច្រើនដងនៅក្នុងពេលតែមួយ ហើយទិន្នន័យរបស់លោកអ្នកនឹងអាចប្តូរបានរហូតដល់50GB។ សូមកត់ចំណាំថាសុពលភាពនៃគម្រោងរឺទិន្នន័យដែលបានប្តូរនឹងយកតាមគម្រោងរឺទិន្នន័យដែលបានប្តូរចុងក្រោយបំផុត។
>>>
តើនរណាអាចភ្ជាប់គម្រោង qb សេរី?
រាល់អតិថិជន qb Simple ទាំងអស់ អាចភ្ជាប់គម្រោង qb សេរី។
>>>
តើមានអ្វីកើតឡើងនៅពេលដែល qb សេរី របស់ខ្ញុំផុតសុពលភាព?
នៅពេលដែលគម្រោងqbសេរីអស់សុពលភាពលោកអ្នកនៅតែអាចប្រើអ៊ីនធើណែតបានដដែល គឺ1MB = 1សេន។
>>>
តើខ្ញុំអាចភ្ជាប់គម្រោង qb Serey លើសពីគម្រោងមួយនៅពេលតែមួយបានដែរឬទេ?
លោកអ្នកអាចភ្ជាប់គម្រោង qbសេរី ច្រើនគម្រោងបាននៅពេលតែមួយ។ សូមកត់ចំណាំថាសុពលភាពនៃគម្រោងរឺទិន្នន័យដែលបានប្តូរនឹងយកតាមគម្រោងរឺទិន្នន័យដែលបានប្តូរចុងក្រោយបំផុត។
>>>
តើនរណាអាច ភ្ជាប់គម្រោង Xtra Value បាន?
រាល់អតិថិជន qb Simpleទាំងអស់អាចទិញ Xtra Value បាន។
>>>
តើមានអ្វីកើតឡើងនៅពេលដែលគម្រោង Xtra Value របស់ខ្ញុំអស់សុពលភាព?
នៅពេលដែលគម្រោង Xtra Value អស់សុពលភាព លោកអ្នកនៅតែអាចប្រើ អ៊ីនធើណែតបានដដែល គឺ1MB = 1សេន។
>>>
តើខ្ញុំអាចភ្ជាប់គម្រោង Xtra Value ច្រើនដងបានដែរឬទេ?
លោកអ្នកអាចភ្ជាប់គម្រោងXtraValueបានច្រើនដងនៅពេលជាមួយគ្នាបាន ហើយទិន្នន័យរបស់លោកអ្នកនឹងត្រូវកើនដល់6GB។ សូមកត់ចំណាំថាសុពលភាពនៃគម្រោងរឺទិន្នន័យដែលបានប្តូរនឹងយកតាមគម្រោងរឺទិន្នន័យដែលបានប្តូរចុងក្រោយបំផុត។
>>>
តើខ្ញុំអាចបញ្ចូលទឹកប្រាក់ឲ្យមិត្តភ័ក្តនិងគ្រួសាររបស់ខ្ញុំដោយរបៀបណា (qb Mee)?
qb Mee គឺជាសេវាសម្រាប់អតិថិជន qb ទាំងអស់ដើម្បីបញ្ចូលទឹកប្រាក់សម្រាប់មិត្តភ័ក្តនិង គ្រួសាររបស់អ្នក ដោយពួកគាត់មិនចាំបាច់មានកាតកោស ឬ លេខសម្ងាត់ (Pins)នោះទេ។  អ្នកគ្រាន់តែមានកាតកោសរូចបញ្ចូលទឹកប្រាក់ទៅអោយពួកគាតដោយចុចទៅលេខ *133* លេខសម្ងាត់*លេខទូរស័ព្ទ#ហើយបញ្ជូន។ ចំពោះសេវាកម្មនេះមិនតម្រូវឲ្យមានការចុះឈ្មោះឡើយ។
>>>
តើសេវារាប់អានមិត្តតាមរយៈ qb គឺជាអ្វី?
bមានសេវាដ៏អស្ចារ្យដើម្បីជួយអតិថិជនរកមិត្តភក្ត្រ័ថ្មីៗតាមរយៈការទូរសព្ទ័និងការផ្ញើសារជជែកកំសាន្ត។ ដើម្បីចុះឈ្មោះជាមួយ qb Friend សូមចុច ឬផ្ញើរសារទៅកាន់លេខ 2442។ លោកអ្នកគ្រាន់តែចំណាយតែ 7c ក្នុងមួយថ្ងៃតែប៉ុណ្ណោះ។ សម្រាប់ព៌តមានលម្អិត
>>>
តើខ្ញុំអាចអាចហៅទូរស័ព្ទទៅក្រៅប្រទេសដោយរបៀបណា?
លោកអ្នកគ្រាន់តែចុចលេខ 153 + លេខកូដប្រទេស + លេខកូដតំបន់ + លេខទូរស័ព្ទ
>>>
តើអត្រាហៅចេញទៅក្រៅប្រទេសរបស់ qb មានអ្វីខ្លះ?
អត្រាហៅចេញទៅក្រៅប្រទេសចាប់ផ្តើមពី 3c ក្នុងមួយនាទី។
>>>
តើខ្ញុំអាចបញ្ចូលទឹកប្រាក់ដោយរបៀបណា និងនៅទីណា?
លោកអ្នកអាចបញ្ចូលទឹកប្រាក់ដោយតាមរយៈកាតកោសឬដោយប្រព័ន្ធអេឡិចត្រូនិច	តាមរយៈស្តង់ qb, ទីតាំងដៃគូរបស់ qb, Wing, truemoney និងម៉ាស៊ីន	ATM របស់ធនាគានាំមុខ	មួយចំនួន។
>>>
តើការបញ្ចូលទឹកប្រាក់មានសុពលភាពរយៈពេលប៉ុន្មាន?
សុពលភាពនៃការបញ្ចូលទឹកប្រាក់របស់ qb គឺមានដូចតទៅ៖ ១ដុល្លា មានសុពលភាព ២៨ថ្ងៃ ២ដុល្លា មានសុពលភាព ៤០ថ្ងៃ ៥ដុល្លា មានសុពលភាព ៦០ថ្ងៃ ១០ដុល្លា មានសុពលភាព ៧០ថ្ងៃ ២០ដុល្លា មានសុពលភាព ១០០ថ្ងៃ ៥០ដុល្លា មានសុពលភាព ២០០ថ្ងៃ ប្រសិនបើលោកអ្នកបញ្ចូលទឹកប្រាក់ផ្ទួនៗគ្នា សុពលភាពនឹងត្រូវផុតកំណត់គឺជាសុពលភាព ដែលវែងជាងគេ។ សុពលភាពនៃសម្យតុលដែលនៅសល់នឹងកើនឡើង ប្រសិនបើលោក អ្នកបញ្ចូលទឹកប្រាក់មុនគណនេយ្យរបស់លោកអ្នកមិនដំណើការ។សម្រាប់ព៌តមានលម្អិត
>>>
តើរបៀបបញ្ចូលទឹកប្រាក់យ៉ាងម៉េចទៅ?
មានវិធីពីរដែលលោកអ្នកអាចបញ្ចូលទឹកប្រាក់បាន៖ PIN-Based Top Up៖ តាមរយៈទាំងកាតកោស និងប្រព័ន្ធអេឡិចត្រូនិច លោក អ្នកនឹងត្រូវការលេខកូដ (PIN) ចំនួន 13 ខ្ទង់ បន្ទាប់មកចុច *133* លេខសម្ងាត់ ហើយចុចបញ្ជូន PIN-Less Top Up៖ តាមរយៈប្រព័ន្ធអេឡិចត្រូនិចប៉ុណ្ណោះដោយគ្រាន់តែឲ្យលេខទូរស័ព្ទរបស់លោកអ្នក ទៅកាន់ដៃគូរបស់ qb ដូចជា Wing, ASIA WEI LUY, ding*  (ezetop.com) -- ដែលជាភ្នាក់ងារផ្តល់សេវា បន្ទាប់មកពួកគេនឹងបញ្ចូលទឹកប្រាក់ជូនតែម្តង។
>>>
តើត្រូវពិនិត្យសម្យតុលទឹកប្រាក់និងទិន្នន័យដោយរបៀបណា?
ពិនិត្យសម្យតុលដែលនៅសល់គ្រាន់តែចុច #132# ពិនិត្យសម្យតុលទិន្នន័យប្តូរប្រាក់ដែលនៅសល់គ្រាន់តែចុច *888*0# ពិនិត្យសម្យតុល qbសេរី ដែលនៅសល់គ្រាន់តែចុច *999*000# ពិនិត្យសម្យតុល Xtra Value ដែលនៅសល់គ្រាន់តែចុច *999*0#
>>>
តើខ្ញុំអាចទិញ qb ស៊ីមកាត និងបញ្ចូលទឹកប្រាក់នៅទីណា?
ទីតាំងធំរបស់qbគឺមានទីតាំងនៅ ផ្ទះលេខ825ABC មហាវិថីព្រះមុនីវង្ស។ យើងក៏មានបញ្ជរលក់នៅក្នុងអាកាសយានដ្ឋានអន្តរជាតិភ្នំពេញ។ លោកអ្នកអាចរកទិញកាតកោសតាមភ្នាក់ងារចែកចាយរបស់ qb ជាច្រើនរយកន្លែងផ្សេងទៀត
>>>
តើ qb មានគម្រោងតម្លៃអ្វីខ្លះ?
qb មានគម្រោងតម្លៃបី៖ qb Simple, qb Passport $5 and qb Passport $2.
>>>
តើ qb Simple ជាអ្វី?
qbSimple ជាគម្រោងដ៏ពេញនិយម និង ផ្តល់ជូនលោកអ្នកនូវអត្រាតម្លៃដ៏ល្អនិងទាបបំផុតក្នុងប្រទេសកម្ពុជា ជាមួយនឹងការហៅចេញក្នុងប្រពន្ធ័ដោយឥតគិតថ្លៃ ១០នាទីជារៀងរាល់ថ្ងៃ។
>>>
តើសេវាគ្រប់ដណ្តប់ របស់ qbជាអ្វី ?
អ្នកអាចប្រើសេវា ទូរស័ព្ទដូចជា ប្រព័ន្ធអ៊ីនធឺណេត និង សំលេងច្បាស់ល្អ ដែលគ្របដណ្តប់ 9០% លើផ្ទៃប្រទេស និង 99% នៃចំនួនប្រជាជនកម្ពុជា។
>>>
តើខ្ញុំគួធ្វើដូចម្តេចដើម្បីធានាថា ខ្ញុំបានភ្ជាប់អ៊ីនធើណែតប្រព័ន្ធ3G?
ដើម្បីធានាថា លោកអ្នកបានភ្ជាប់សេវាអ៊ីនធើណែត 3G លោកអ្នកត្រូវបំពេញ ចំនុច settings នៅលើឧបករណ៍របស់អ្នកដូចតទៅ៖ iOS Data Roaming: Turn on Android Data Roaming: Enabled
>>>
តើខ្ញុំអាចប្តូរម្ចាស់កម្មសិទ្ធិលេខរបស់ខ្ញុំបានដែរឬទេ?
លោកអ្នកអាចប្តូកម្មសិទ្ធិបាន ដោយគ្រាន់តែយកមកជាមួយនូវអត្តសញ្ញាណប័ណ្ណ ឬឯកសារច្បាប់ដើម ហើយទាំងម្ចាស់ថ្មីនិងម្ចាស់ចាស់មកកាន់បញ្ជបំរើអតិថិជន qb  មានទីតាំងនៅផ្ទះលេខ #825 ABCមហាវិថី ព្រះមុនីវង្ស ឬនៅក្នុងអាកាសយានដ្ឋានអន្តរជាតិភ្នំពេញ។សូមបញ្ជាក់ថា ម្ចាស់ទាំងពីរត្រូវមានវត្តមាននៅបញ្ជ/ស្តង់បំរើអតិថិជនqb។
>>>
ស៊ីមកាតរបស់ខ្ញុំបាត់ ឬត្រូវបានគេលួច តើខ្ញុំគួរធ្វើដូចម្តេច?
ទូរស័ព្ទទៅកាន់លេខ 013 300 300 ដើម្បីព្យួរគណនេយ្យរបស់លោកអ្នកជាបណ្តោះអាសន្ត។ លោកអ្នកនឹងទទួលបានការណែនាំជាបន្តបន្ទាប់ដើម្បីទទួលបានស៊ីមថ្មីជាមួយនិងលេខដដែល។
>>>
តើខ្ញុំនឹងដឹងដោយរបៀបណាថាពេលណាលេខខ្ញុំនឹងត្រូវកាត់ផ្តាច់?
លេខរបស់លោកអ្នកនឹងត្រូវកាត់ផ្តាច់នៅពេលដែលគណនេយ្យរបស់លោកអ្នកផុតសុពលភាពរយៈពេល90ថ្ងៃ។ ក្រុមហ៊ុនយើងតែងតែផ្ញើរសារជម្រាបជាមុន មុនពេលកាត់ផ្តាច់។  ប្រសិនបើលោកអ្នកមិនច្បាស់អំពីស្ថានភាពគណនេយ្យរបស់លោកអ្នក ហើយសម្យតុលរបស់លោកអ្នកគឺ $0.00. សូចចុច #132# ហើយបញ្ជូន។ ចម្លើយនឹងមានកាលបរិច្ឆេទនិងសុពលភាពនៃគណនេយ្យរបស់លោកអ្នក។